{
    "app_name": "Fast Charger 2020 New",
	  "app_current_package":"fastcharge.batterysaver.batterymaster.fastcharging",
	  "app_current_version": "1.2.0",
	  "app_current_version_code": 10,
	  "app_should_show_update_popup": "true",
	  "app_current_state": "suspended",
	  "app_new_package_if_app_was_suspended":"researchcenter.batterysaver.fastcharger.powerdoctor.batterydoctor"
}