{
    "app_name": "Home Button, Assistive Touch",
    "app_current_package":"cleanerstudio.easytouch.virtualhomebutton",
    "app_current_version": "1.1.7",
    "app_current_version_code": 7,
    "app_should_show_update_popup": "true",
    "app_current_state": "normal",
    "app_new_package_if_app_was_suspended":"cleanerstudio.easytouch.virtualhomebutton",
    "app_should_show_full_ads": "true",
    "app_full_ads_frequently": 3
}